[
  {
    "normalForm": "bi",
    "id":800000,
    "translations": [ "to be:*" ],
    "present": {
      "defaults": "tha",
      "impersonal": []
    },
    "future": {
      "defaults": "bidh",
      "impersonal": []
    },
    "preterite": {
      "defaults": "bha",
      "impersonal": []
    },
    "conditional": {
      "defaults": "bhìodh",
      "singFirst": "bhithinn",
      "singSecond": "bhìodh tu",
      "singThird": "bhìodh e/i",
      "plurFirst": "bhitheamaid",
      "plurSecond": "bhìodh sibh",
      "plurThird": "bhìodh iad",
      "impersonal": []
    },
    "future_relative": {
      "defaults": "bhios",
      "singFirst": "bhitheas",
      "singSecond": "bhios tu",
      "singThird": "bhios e/i",
      "plurFirst": "bhios sinn",
      "plurSecond": "bhios sibh",
      "plurThird": "bhios iad",
      "impersonal": []
    },
    "imperative": {
      "defaults": "bi",
      "singFirst": "bitheam",
      "singSecond": "bi",
      "singThird": "bitheadh",
      "plurFirst": "bhitheamaid",
      "plurSecond": "bithibh",
      "plurThird": "bitheadh",
      "impersonal": []
    }
  },
  {
    "normalForm": "abair",
    "id":800001,
    "translations": [ "to say" ],
    "future": {
      "defaults": "their",
      "impersonal": []
    },
    "preterite": {
      "defaults": "thuirt",
      "impersonal": []
    },
    "conditional": {
      "defaults": "theireadh",
      "singFirst": "theirinn",
      "singSecond": "theireadh tu",
      "singThird": "theireadh e/i",
      "plurFirst": "theireamaid",
      "plurSecond": "theireadh sibh",
      "plurThird": "theireadh iad",
      "impersonal": []
    },
    "future_relative": {
      "defaults": "their",
      "impersonal": []
    }
  },
  {
    "normalForm": "beir",
    "id":800002,
    "translations": [ "to catch" ],
    "future": {
      "defaults": "beiridh",
      "impersonal": []
    },
    "preterite": {
      "defaults": "rug",
      "impersonal": []
    },
    "conditional": {
      "defaults": "bheireadh",
      "singFirst": "bheirinn",
      "singSecond": "bheireadh tu",
      "singThird": "bheireadh e/i",
      "plurFirst": "bheireamaid",
      "plurSecond": "bheireadh sibh",
      "plurThird": "bheireadh iad",
      "impersonal": []
    },
    "future_relative": {
      "defaults": "bheireas",
      "impersonal": []
    }
  },
  {
    "normalForm": "cluinn",
    "id":800003,
    "translations": [ "to hear" ],
    "future": {
      "defaults": "cluinnidh",
      "impersonal": []
    },
    "preterite": {
      "defaults": "chuala",
      "impersonal": []
    },
    "conditional": {
      "defaults": "chluinneadh",
      "singFirst": "chluinninn",
      "singSecond": "chluinneadh tu",
      "singThird": "chluinneadh e/i",
      "plurFirst": "chluinneamaid",
      "plurSecond": "chluinneadh sibh",
      "plurThird": "chluinneadh iad",
      "impersonal": []
    },
    "future_relative": {
      "defaults": "chluinneas",
      "impersonal": []
    }
  },
  {
    "normalForm": "dèan",
    "id":800004,
    "translations": [ "to do", "to make" ],
    "future": {
      "defaults": "nì",
      "impersonal": []
    },
    "preterite": {
      "defaults": "rinn",
      "impersonal": []
    },
    "conditional": {
      "defaults": "dhèanadh",
      "singFirst": "dhèanainn",
      "singSecond": "dhèanadh tu",
      "singThird": "dhèanadh e/i",
      "plurFirst": "dhèanamaid",
      "plurSecond": "dhèanadh sibh",
      "plurThird": "dhèanadh iad",
      "impersonal": []
    },
    "future_relative": {
      "defaults": "nì",
      "impersonal": []
    }
  },
  {
    "normalForm": "faic",
    "id":800005,
    "translations": [ "to see" ],
    "future": {
      "defaults": "chì",
      "impersonal": []
    },
    "preterite": {
      "defaults": "chunnaic",
      "impersonal": []
    },
    "conditional": {
      "defaults": "chitheadh",
      "singFirst": "chithinn",
      "singSecond": "chitheadh tu",
      "singThird": "chitheadh e/i",
      "plurFirst": "chitheaimid",
      "plurSecond": "chitheadh sibh",
      "plurThird": "chitheadh iad",
      "impersonal": []
    },
    "future_relative": {
      "defaults": "chì",
      "impersonal": []
    }
  },
  {
    "normalForm": "faigh",
    "id":800006,
    "translations": [ "to get" ],
    "future": {
      "defaults": "gheibh",
      "impersonal": []
    },
    "preterite": {
      "defaults": "fhuair",
      "impersonal": []
    },
    "conditional": {
      "defaults": "gheibheadh",
      "singFirst": "gheibhinn",
      "singSecond": "gheibheadh tu",
      "singThird": "gheibheadh e/i",
      "plurFirst": "gheibheamaid",
      "plurSecond": "gheibheadh sibh",
      "plurThird": "gheibheadh iad",
      "impersonal": []
    },
    "future_relative": {
      "defaults": "gheibh",
      "impersonal": []
    }
  },
  {
    "normalForm": "rach",
    "id":800007,
    "translations": [ "to go" ],
    "future": {
      "defaults": "thèid",
      "impersonal": []
    },
    "preterite": {
      "defaults": "chaidh",
      "impersonal": []
    },
    "conditional": {
      "defaults": "rachadh",
      "singFirst": "rachainn",
      "singSecond": "rachadh tu",
      "singThird": "rachadh e/i",
      "plurFirst": "rachamaid",
      "plurSecond": "rachadh sibh",
      "plurThird": "rachadh iad",
      "impersonal": []
    },
    "future_relative": {
      "defaults": "thèid",
      "impersonal": []
    },
    "imperative": {
      "defaults": "rach",
      "singFirst": "thallam",
      "singSecond": "thalla",
      "singThird": "thalladh",
      "plurFirst": "thallamaid",
      "plurSecond": "thallaibh",
      "plurThird": "thalladh",
      "impersonal": []
    }
  },
  {
    "normalForm": "ruig",
    "id":800008,
    "translations": [ "to arrive", "to reach" ],
    "future": {
      "defaults": "ruigidh",
      "impersonal": []
    },
    "preterite": {
      "defaults": "ràinig",
      "impersonal": []
    },
    "conditional": {
      "defaults": "ruigeadh",
      "singFirst": "ruiginn",
      "singSecond": "ruigeadh tu",
      "singThird": "ruigeadh e/i",
      "plurFirst": "ruigeamaid",
      "plurSecond": "ruigeadh sibh",
      "plurThird": "ruigeadh iad",
      "impersonal": []
    },
    "future_relative": {
      "defaults": "ruigeas",
      "impersonal": []
    }
  },
  {
    "normalForm": "thoir",
    "id":800009,
    "translations": [ "to give" ],
    "future": {
      "defaults": "bheir",
      "impersonal": []
    },
    "preterite": {
      "defaults": "thug",
      "impersonal": []
    },
    "conditional": {
      "defaults": "bheireadh",
      "singFirst": "bheirinn",
      "singSecond": "bheireadh tu",
      "singThird": "bheireadh e/i",
      "plurFirst": "bheireamaid",
      "plurSecond": "bheireadh sibh",
      "plurThird": "bheireadh iad",
      "impersonal": []
    },
    "future_relative": {
      "defaults": "bheir",
      "impersonal": []
    }
  },
  {
    "normalForm": "thig",
    "id":800010,
    "translations": [ "to come" ],
    "future": {
      "defaults": "thig",
      "impersonal": []
    },
    "preterite": {
      "defaults": "thàinig",
      "impersonal": []
    },
    "conditional": {
      "defaults": "thigeadh",
      "singFirst": "thiginn",
      "singSecond": "thigeadh tu",
      "singThird": "thigeadh e/i",
      "plurFirst": "thigeamaid",
      "plurSecond": "thigeadh sibh",
      "plurThird": "thigeadh iad",
      "impersonal": []
    },
    "future_relative": {
      "defaults": "thig",
      "impersonal": []
    }
  },
  {
    "normalForm": "tuislich",
    "id":800011,
    "translations": [ "to stumble" ]
  },
  {
    "normalForm": "mairsinn",
    "id":800012,
    "translations": [ "to survive" ]
  },
  {
    "normalForm": "dùin",
    "id":800013,
    "translations": [ "to lock" ]
  },
  {
    "normalForm": "suidh",
    "id":800014,
    "translations": [ "to sit" ]
  },
  {
    "normalForm": "còcairich",
    "id":800015,
    "translations": [ "to cook" ]
  },
  {
    "normalForm": "tur-rannsaich",
    "id":800016,
    "translations": [ "to analyze" ]
  },
  {
    "normalForm": "an-luchdaich",
    "id":800017,
    "translations": [ "to overload" ]
  },
  {
    "normalForm": "aontaich",
    "id":800018,
    "translations": [ "to agree" ]
  },
  {
    "normalForm": "èirich",
    "id":800019,
    "translations": [ "to ascend" ]
  },
  {
    "normalForm": "falamhaich",
    "id":800020,
    "translations": [ "to evacuate" ]
  },
  {
    "normalForm": "clochan",
    "id":800021,
    "translations": [ "to respire" ]
  },
  {
    "normalForm": "ath-ghluais",
    "id":800022,
    "translations": [ "to relocate" ]
  },
  {
    "normalForm": "ath-aonaich",
    "id":800023,
    "translations": [ "to reunite" ]
  },
  {
    "normalForm": "ùr-bheòthaich",
    "id":800024,
    "translations": [ "to revive" ]
  },
  {
    "normalForm": "ath-sgrùd",
    "id":800025,
    "translations": [ "to review", "to revise" ]
  },
  {
    "normalForm": "ais-tachrais",
    "id":800026,
    "translations": [ "to rewind" ]
  },
  {
    "normalForm": "mì-mhisnich",
    "id":800027,
    "translations": [ "to discourage" ]
  },
  {
    "normalForm": "atharraich",
    "id":800028,
    "translations": [ "to alter" ]
  },
  {
    "normalForm": "ath-chuairtich",
    "id":800029,
    "translations": [ "to recycle" ]
  },
  {
    "normalForm": "ath-mhisnich",
    "id":800030,
    "translations": [ "to reassure" ]
  },
  {
    "normalForm": "ath-uidheamaich",
    "id":800031,
    "translations": [ "to refurbish" ]
  },
  {
    "normalForm": "ath-dhèan",
    "id":800032,
    "translations": [ "to redo" ]
  },
  {
    "normalForm": "ath-eagraich",
    "id":800033,
    "translations": [ "to re-organise" ]
  },
  {
    "normalForm": "cuimhnich",
    "id":800034,
    "translations": [ "to recall" ]
  },
  {
    "normalForm": "ath-choisinn",
    "id":800035,
    "translations": [ "to regain" ]
  },
  {
    "normalForm": "ath-lìon",
    "id":800036,
    "translations": [ "to refill", "to replenish" ]
  },
  {
    "normalForm": "ath-bheòthaich",
    "id":800037,
    "translations": [ "to rejuvenate", "to revive" ]
  },
  {
    "normalForm": "ath-obraich",
    "id":800038,
    "translations": [ "to rework" ]
  },
  {
    "normalForm": "ath-thrèan",
    "id":800039,
    "translations": [ "to retrain" ]
  },
  {
    "normalForm": "ath-chuir",
    "id":800040,
    "translations": [ "to transplant" ]
  },
  {
    "normalForm": "grinnich",
    "id":800041,
    "translations": [ "to refine" ]
  },
  {
    "normalForm": "ath-stiùirich",
    "id":800042,
    "translations": [ "to divert", "to redirect" ]
  },
  {
    "normalForm": "ath-thòisich",
    "id":800043,
    "translations": [ "to restart" ]
  },
  {
    "normalForm": "ath-threòraich",
    "id":800044,
    "translations": [ "to divert" ]
  },
  {
    "normalForm": "sìolaich",
    "id":800045,
    "translations": [ "to reproduce" ]
  },
  {
    "normalForm": "ath-thog",
    "id":800046,
    "translations": [ "to reconstruct" ]
  },
  {
    "normalForm": "suaip",
    "id":800047,
    "translations": [ "to barter" ]
  },
  {
    "normalForm": "cros",
    "id":800048,
    "translations": [ "to hinder" ]
  },
  {
    "normalForm": "bùitich",
    "id":800049,
    "translations": [ "to threaten" ]
  },
  {
    "normalForm": "tionail",
    "id":800050,
    "translations": [ "to assemble" ]
  },
  {
    "normalForm": "buain",
    "id":800051,
    "translations": [ "to harvest", "to reap" ]
  },
  {
    "normalForm": "baist",
    "id":800052,
    "translations": [ "to baptise" ]
  },
  {
    "normalForm": "dàth",
    "id":800053,
    "translations": [ "to singe" ]
  },
  {
    "normalForm": "riasail",
    "id":800054,
    "translations": [ "to mangle" ]
  },
  {
    "normalForm": "lamaistich",
    "id":800055,
    "translations": [ "to batter" ]
  },
  {
    "normalForm": "ùillich",
    "id":800056,
    "translations": [ "to lubricate" ]
  },
  {
    "normalForm": "beannaich",
    "id":800057,
    "translations": [ "to bless" ]
  },
  {
    "normalForm": "brist",
    "id":800058,
    "translations": [ "to break", "to breach" ]
  },
  {
    "normalForm": "lom",
    "id":800059,
    "translations": [ "to shave" ]
  },
  {
    "normalForm": "tionnsgail",
    "id":800060,
    "translations": [ "to contrive" ]
  },
  {
    "normalForm": "goil",
    "id":800061,
    "translations": [ "to boil" ]
  },
  {
    "normalForm": "bioraich",
    "id":800062,
    "translations": [ "to sharpen" ]
  },
  {
    "normalForm": "bòirnich",
    "id":800063,
    "translations": [ "to cajole" ]
  },
  {
    "normalForm": "bodhair",
    "id":800064,
    "translations": [ "to deafen" ]
  },
  {
    "normalForm": "gluais",
    "id":800065,
    "translations": [ "to move" ]
  },
  {
    "normalForm": "bòc",
    "id":800066,
    "translations": [ "to bloat" ]
  },
  {
    "normalForm": "at",
    "id":800067,
    "translations": [ "to surge" ]
  },
  {
    "normalForm": "mothaich",
    "id":800068,
    "translations": [ "to notice" ]
  },
  {
    "normalForm": "luach",
    "id":800069,
    "translations": [ "to evaluate" ]
  },
  {
    "normalForm": "luisnich",
    "id":800070,
    "translations": [ "to glow" ]
  },
  {
    "normalForm": "brod",
    "id":800071,
    "translations": [ "to goad" ]
  },
  {
    "normalForm": "deifrich",
    "id":800072,
    "translations": [ "to hasten" ]
  },
  {
    "normalForm": "fuin",
    "id":800073,
    "translations": [ "to bake" ]
  },
  {
    "normalForm": "breugaich",
    "id":800074,
    "translations": [ "to belie" ]
  },
  {
    "normalForm": "broid",
    "id":800075,
    "translations": [ "to embroider" ]
  },
  {
    "normalForm": "buannaich",
    "id":800076,
    "translations": [ "to win" ]
  },
  {
    "normalForm": "buail",
    "id":800077,
    "translations": [ "to hit" ]
  },
  {
    "normalForm": "coinnich",
    "id":800078,
    "translations": [ "to meet" ]
  },
  {
    "normalForm": "buair",
    "id":800079,
    "translations": [ "to annoy" ]
  },
  {
    "normalForm": "stèidhich",
    "id":800080,
    "translations": [ "to establish" ]
  },
  {
    "normalForm": "drùidh",
    "id":800081,
    "translations": [ "to drench" ]
  },
  {
    "normalForm": "gealaich",
    "id":800082,
    "translations": [ "to bleach" ]
  },
  {
    "normalForm": "cobhair",
    "id":800083,
    "translations": [ "to assist" ]
  },
  {
    "normalForm": "cìob",
    "id":800084,
    "translations": [ "to bite" ]
  },
  {
    "normalForm": "arfantaich",
    "id":800085,
    "translations": [ "to forfeit" ]
  },
  {
    "normalForm": "cartich",
    "id":800086,
    "translations": [ "to chart" ]
  },
  {
    "normalForm": "riadh",
    "id":800087,
    "translations": [ "to charter" ]
  },
  {
    "normalForm": "seinn",
	"notes": "Can also be used to mean play (a musical instrument)",
    "id":800088,
    "translations": [ "to sing" ]
  },
  {
    "normalForm": "guil",
    "id":800089,
    "translations": [ "to cry" ]
  },
  {
    "normalForm": "càrn",
    "id":800090,
    "translations": [ "to accumulate" ]
  },
  {
    "normalForm": "luathsaich",
    "id":800091,
    "translations": [ "to allow" ]
  },
  {
    "normalForm": "neo-dhèan",
    "id":800092,
    "translations": [ "to annul" ]
  },
  {
    "normalForm": "meall",
    "id":800093,
    "translations": [ "to deceive" ]
  },
  {
    "normalForm": "bann",
    "id":800094,
    "translations": [ "to bind" ]
  },
  {
    "normalForm": "ceannaich",
    "id":800095,
    "translations": [ "to buy" ]
  },
  {
    "normalForm": "suidhich",
    "id":800096,
    "translations": [ "to appoint" ]
  },
  {
    "normalForm": "ceartaich",
    "id":800097,
    "translations": [ "to rectify", "to correct" ]
  },
  {
    "normalForm": "comharraich",
    "id":800098,
    "translations": [ "to celebrate" ]
  },
  {
    "normalForm": "ceisnich",
    "id":800099,
    "translations": [ "to interrogate" ]
  },
  {
    "normalForm": "breithnich",
    "id":800100,
    "translations": [ "to interpret" ]
  },
  {
    "normalForm": "cic",
    "id":800101,
    "translations": [ "to kick" ]
  },
  {
    "normalForm": "ciogail",
    "id":800102,
    "translations": [ "to tickle" ]
  },
  {
    "normalForm": "barantaich",
    "id":800103,
    "translations": [ "to assure" ]
  },
  {
    "normalForm": "sònraich",
    "id":800104,
    "translations": [ "to allocate" ]
  },
  {
    "normalForm": "cuairtich",
    "id":800105,
    "translations": [ "to encircle" ]
  },
  {
    "normalForm": "beàrn",
    "id":800106,
    "translations": [ "to hack" ]
  },
  {
    "normalForm": "fèathaich",
    "id":800107,
    "translations": [ "to becalm" ]
  },
  {
    "normalForm": "pronn",
    "id":800108,
    "translations": [ "to maul" ]
  },
  {
    "normalForm": "cruth-atharraich",
    "id":800109,
    "translations": [ "to transform" ]
  },
  {
    "normalForm": "claoin",
    "id":800110,
    "translations": [ "to incline" ]
  },
  {
    "normalForm": "cleachdadh",
    "id":800111,
    "translations": [ "to practise" ]
  },
  {
    "normalForm": "bior",
    "id":800112,
    "translations": [ "to prick" ]
  },
  {
    "normalForm": "callaich",
    "id": 800113,
    "translations": [ "to tame" ]
  },
  {
    "normalForm": "clòimh",
    "id": 800114,
    "translations": [ "to preen" ]
  },
  {
    "normalForm": "bàth",
    "id": 800115,
    "translations": [ "to muffle" ]
  },
  {
    "normalForm": "clàr",
    "id": 800116,
    "translations": [ "to enroll" ]
  },
  {
    "normalForm": "stamh",
    "id": 800117,
    "translations": [ "to subdue" ]
  },
  {
    "normalForm": "cùirnich",
    "id": 800118,
    "translations": [ "to cover" ]
  },
  {
    "normalForm": "spiol",
    "id": 800119,
    "translations": [ "to gnaw" ]
  },
  {
    "normalForm": "slànaich",
    "id": 800120,
    "translations": [ "to heal" ]
  },
  {
    "normalForm": "figh",
    "id": 800121,
    "translations": [ "to knit" ]
  },
  {
    "normalForm": "cadail",
    "id": 800122,
    "translations": [ "to sleep" ]
  },
  {
    "normalForm": "cagainn",
    "id": 800123,
    "translations": [ "to chew" ]
  },
  {
    "normalForm": "ùraich",
    "id": 800124,
    "translations": [ "to update" ]
  },
  {
    "normalForm": "spoth",
    "id": 800125,
    "translations": [ "to castrate" ]
  },
  {
    "normalForm": "tuinich",
    "id": 800126,
    "translations": [ "to colonize" ]
  },
  {
    "normalForm": "beachdnaich",
    "id": 800127,
    "translations": [ "to observe" ]
  },
  {
    "normalForm": "suim",
    "id": 800128,
    "translations": [ "to sum-up", "to aggregate" ]
  },
  {
    "normalForm": "làidrich",
    "id": 800129,
    "translations": [ "to strengthen" ]
  },
  {
    "normalForm": "ciontaich",
    "id": 800130,
    "translations": [ "to commit:1" ]
  },
  {
    "normalForm": "bac",
    "id": 800131,
    "translations": [ "to ban" ]
  },
  {
    "normalForm": "coilean",
    "id": 800133,
    "translations": [ "to fulfill" ]
  },
  {
    "normalForm": "cunnt",
    "id": 800134,
    "translations": [ "to count" ]
  },
  {
    "normalForm": "comhairlich",
    "id": 800135,
    "translations": [ "to advise" ]
  },
  {
    "normalForm": "dùmhlaich",
    "id": 800136,
    "translations": [ "to compress" ]
  }
]
